a 2.350 2350 0 -59 0 -75
a 2.300 2300 20 -40 20 -56
a 2.250 2250 40 -34 40 -50
a 2.200 2200 60 -30 40 -45
a 2.150 2150 60 -27 40 -41
a 2.100 2100 60 -24 40 -36
a 2.050 2050 60 -21 40 -31
a 2.000 2000 60 -18 40 -27
a 1.950 1950 60 -15 40 -22
a 1.900 1900 60 -12 40 -18
a 1.850 1850 60 -9 40 -13
a 1.800 1800 60 -5 40 -8
a 1.750 1750 60 -2 40 -4
a 1.700 1700 60 1 40 1
a 1.650 1650 60 4 40 6
a 1.600 1600 60 7 40 10
a 1.550 1550 60 10 40 15
a 1.500 1500 60 13 40 20
a 1.450 1450 60 16 40 24
a 1.400 1400 60 19 40 29
a 1.350 1350 60 22 40 33
a 1.300 1300 60 25 40 38
a 1.250 1250 60 28 40 43
a 1.200 1200 60 32 40 47
a 1.150 1150 60 35 40 52
a 1.100 1100 60 38 40 57
a 1.050 1050 60 41 40 61
a 1.000 1000 60 44 40 66
a 0.950 950 60 47 40 70
a 0.900 900 60 50 40 75
a 0.850 850 60 53 40 80
a 0.800 800 30 57 20 86
a 0.750 750 0 70 0 104

